^C:\USERS\ETHZRT\DOCUMENTS\MSC-GENERATOR\CAIRO_PROJECT\LIBPNG\CONTRIB\LIBTESTS\PNGVALID.C
C:\USERS\ETHZRT\DOCUMENTS\MSC-GENERATOR\CAIRO_PROJECT\LIBPNG\PROJECTS\VSTUDIO\PNGVALID\RELEASE LIBRARY\VC141.PDB
C:\USERS\ETHZRT\DOCUMENTS\MSC-GENERATOR\CAIRO_PROJECT\LIBPNG\PROJECTS\VSTUDIO\PNGVALID\RELEASE LIBRARY\PNGVALID.SBR
C:\USERS\ETHZRT\DOCUMENTS\MSC-GENERATOR\CAIRO_PROJECT\LIBPNG\PROJECTS\VSTUDIO\PNGVALID\RELEASE LIBRARY\PNGVALID.OBJ
