complex_block2.block:5:9: warning: This attribute value coming from the content style of a parent 'mbottom=next@mtop', next being 'b' is causing a conflict. Removing it.
complex_block2.block:15:9: (The conflict may be with this block's justfy attribute.)
complex_block2.block:16:29: (The conflict may be with this attribute value or style applied directly to a block.)
complex_block2.block:17:9: (The conflict may be with this attribute value or style applied directly to a block 'exact size'.)
complex_block2.block:17:9: (The conflict may be with this block's justfy attribute.)
complex_block2.block:11:10: (The conflict may be with this attribute value or style applied directly to a block.)
complex_block2.block:12:17: (The conflict may be with this attribute value or style applied directly to a block.)
complex_block2.block:13:20: (The conflict may be with this attribute value or style applied directly to a block.)
complex_block2.block:6:9: (The conflict may be with this attribute value coming from the content style of a parent 'default block ordering (max side)'.)
complex_block2.block:7:9: (The conflict may be with this attribute value coming from the content style of a parent 'default block ordering (max side)'.)
There were errors, but a chart has been produced.
