reachability.block:15:1: error: Cannot route this arrow, because its start is inside an enclosure and cannot reach to one of its 'via' attribute.
reachability.block:15:11: (Here is the other point.)
reachability.block:16:1: error: Cannot route this arrow, because its start is inside an enclosure and cannot reach to one of its 'via' attribute.
reachability.block:16:11: (Here is the other point.)
reachability.block:17:1: error: Cannot route this arrow, because its start is inside an enclosure and cannot reach to its end.
reachability.block:17:4: (Here is the other point.)
reachability.block:18:4: error: Cannot route this arrow, because its end is inside an enclosure and is not reachable from its start.
reachability.block:18:1: (Here is the other point.)
There were errors, but a chart has been produced.
