graph {
    defproc proba($c){
        $a->c;
        set $b = b;
        $a->$b;
        $c->$a;
            
    };
    
    set $a=a;
    set $a;
    set $a=;
    replay proba(cc);
    edge [color=red];
    set $a=d;
    replay proba($a);
}